one carat blog - Chapter 2: Data manipulation using dplyr (part 1)
…
5.2 distinct()

Use distinct() to remove rows with duplicate or same values.

library(dplyr)
library(palmerpenguins)

penguins %>% group_by(species) %>% distinct(body_mass_g)

# A tibble: 138 × 2
# Groups:   species [3]
   species body_mass_g
   <fct>         <int>
 1 Adelie         3750
 2 Adelie         3800
 3 Adelie         3250
 4 Adelie           NA
 5 Adelie         3450
 6 Adelie         3650
 7 Adelie         3625
 8 Adelie         4675
 9 Adelie         3475
10 Adelie         4250
# … with 128 more rows
…
5.7 arrange()

Use arrange() to arrange rows in a particular order.

library(dplyr)
library(palmerpenguins)

# arranging rows in descending order of bill length
# by default it arranges data by ascending order when no specifications are given
penguins %>% arrange(desc(bill_length_mm))

# A tibble: 344 × 8
   species   island bill_length_mm bill_depth_mm flipper_length_mm body_mass_g
   <fct>     <fct>           <dbl>         <dbl>             <int>       <int>
 1 Gentoo    Biscoe           59.6          17                 230        6050
 2 Chinstrap Dream            58            17.8               181        3700
 3 Gentoo    Biscoe           55.9          17                 228        5600
 4 Chinstrap Dream            55.8          19.8               207        4000
 5 Gentoo    Biscoe           55.1          16                 230        5850
 6 Gentoo    Biscoe           54.3          15.7               231        5650
 7 Chinstrap Dream            54.2          20.8               201        4300
 8 Chinstrap Dream            53.5          19.9               205        4500
 9 Gentoo    Biscoe           53.4          15.8               219        5500
10 Chinstrap Dream            52.8          20                 205        4550
# … with 334 more rows, and 2 more variables: sex <fct>, year <int>
…
library(dplyr)
library(palmerpenguins)

penguins %>% pull(body_mass_g)

6.2 select()

Use select() to extract columns as tables, by name or index.

library(dplyr)
library(palmerpenguins)

penguins %>% select(species, body_mass_g)

# A tibble: 344 × 2
   species body_mass_g
   <fct>         <int>
 1 Adelie         3750
 2 Adelie         3800
 3 Adelie         3250
 4 Adelie           NA
 5 Adelie         3450
 6 Adelie         3650
 7 Adelie         3625
 8 Adelie         4675
 9 Adelie         3475
10 Adelie         4250
# … with 334 more rows
…
# renames the column sex to gender
penguins %>% rename(gender = sex)

6.5 mutate()

Use mutate() function to create new columns or variables.

library(dplyr)
library(palmerpenguins)

penguins %>% drop_na() %>% 
  group_by(species) %>%
  mutate(mean_mass = mean(body_mass_g))

# A tibble: 333 × 9
# Groups:   species [3]
   species island    bill_length_mm bill_depth_mm flipper_length_mm body_mass_g
   <fct>   <fct>              <dbl>         <dbl>             <int>       <int>
 1 Adelie  Torgersen           39.1          18.7               181        3750
 2 Adelie  Torgersen           39.5          17.4               186        3800
 3 Adelie  Torgersen           40.3          18                 195        3250
 4 Adelie  Torgersen           36.7          19.3               193        3450
 5 Adelie  Torgersen           39.3          20.6               190        3650
 6 Adelie  Torgersen           38.9          17.8               181        3625
 7 Adelie  Torgersen           39.2          19.6               195        4675
 8 Adelie  Torgersen           41.1          17.6               182        3200
 9 Adelie  Torgersen           38.6          21.2               191        3800
10 Adelie  Torgersen           34.6          21.1               198        4400
# … with 323 more rows, and 3 more variables: sex <fct>, year <int>,
#   mean_mass <dbl>

6.6 transmute()

Does the same function as mutate() but in the process will drop any other columns and give you a table with only the newly created columns.

library(dplyr)
library(palmerpenguins)

penguins %>% drop_na() %>% 
  group_by(species) %>%
  transmute(mean_mass = mean(body_mass_g))

# A tibble: 333 × 2
# Groups:   species [3]
   species mean_mass
   <fct>       <dbl>
 1 Adelie      3706.
 2 Adelie      3706.
 3 Adelie      3706.
 4 Adelie      3706.
 5 Adelie      3706.
 6 Adelie      3706.
 7 Adelie      3706.
 8 Adelie      3706.
 9 Adelie      3706.
10 Adelie      3706.
# … with 323 more rows
…
Second example showing across() used with mutate() function. We can efficiently create new columns using mutate() and across() together. Suppose we want to multiply all numerical values in a dataset with 2 and create new columns of those values. This can be done using the code below.

library(dplyr)
library(palmerpenguins)

# define the function
two_times <- function(x) {
  2*x
} 

# .name will rename the new columns with 'twice` prefix combined with existing col names
penguins %>% group_by(species) %>%
  mutate(across(where(is.numeric), two_times, .names = "two_times_{col}"))

# A tibble: 344 × 13
# Groups:   species [3]
   species island    bill_length_mm bill_depth_mm flipper_length_mm body_mass_g
   <fct>   <fct>              <dbl>         <dbl>             <int>       <int>
 1 Adelie  Torgersen           39.1          18.7               181        3750
 2 Adelie  Torgersen           39.5          17.4               186        3800
 3 Adelie  Torgersen           40.3          18                 195        3250
 4 Adelie  Torgersen           NA            NA                  NA          NA
 5 Adelie  Torgersen           36.7          19.3               193        3450
 6 Adelie  Torgersen           39.3          20.6               190        3650
 7 Adelie  Torgersen           38.9          17.8               181        3625
 8 Adelie  Torgersen           39.2          19.6               195        4675
 9 Adelie  Torgersen           34.1          18.1               193        3475
10 Adelie  Torgersen           42            20.2               190        4250
# … with 334 more rows, and 7 more variables: sex <fct>, year <int>,
#   two_times_bill_length_mm <dbl>, two_times_bill_depth_mm <dbl>,
#   two_times_flipper_length_mm <dbl>, two_times_body_mass_g <dbl>,
#   two_times_year <dbl>
…
So in this code, I will have to manually type all the col names and apply the operation individually which is too much of a hassle. Now we can better appreciate how efficient it is in using mutate() and across() functions together.

6.8 c_across()

The function c_across() is similar to the earlier mentioned across() function. But instead of doing a column-wise function, it applies function across columns in a row-wise manner. Now, most functions in R by default computes across columns, so to specify row-wise computation, we have to explicitly use the function rowwise() in conjunction with other functions. In the example below we will sum both bill and flipper lengths of the penguins in the penguins dataset and create a new column called ‘sum_of_lengths’.

library(dplyr)
library(palmerpenguins)

penguins %>% drop_na() %>%
  group_by(species) %>%
  rowwise() %>%
  transmute(sum_of_length = sum(c_across(c(bill_length_mm,flipper_length_mm))))

# A tibble: 333 × 2
# Rowwise:  species
   species sum_of_length
   <fct>           <dbl>
 1 Adelie           220.
 2 Adelie           226.
 3 Adelie           235.
 4 Adelie           230.
 5 Adelie           229.
 6 Adelie           220.
 7 Adelie           234.
 8 Adelie           223.
 9 Adelie           230.
10 Adelie           233.
# … with 323 more rows
…
